Chi Squared - What Is It And How in Python and R – Orgulo.us
…
df = read_csv(
    "https://query.data.world/s/ccu3fx6fivcq2vdyavd26fhzk5tokq",
    col_types='if' # specify the column types are integer, factor.
)
df

# A tibble: 60 × 2
   Subject Pref 
     <int> <fct>
 1       1 B    
 2       2 B    
 3       3 B    
 4       4 B    
 5       5 B    
 6       6 B    
 7       7 B    
 8       8 B    
 9       9 A    
10      10 A    
# ℹ 50 more rows
…
